…
BRFSS_df
```

    ## # A tibble: 10,625 × 23
    ##     year state specific_location     class         topic question response sample_size
    ##    <int> <chr> <chr>                 <chr>         <chr> <chr>    <fct>          <int>
    ##  1  2010 AL    AL - Jefferson County Health Status Over… How is … Excelle…          94
    ##  2  2010 AL    AL - Jefferson County Health Status Over… How is … Very go…         148
    ##  3  2010 AL    AL - Jefferson County Health Status Over… How is … Good             208
    ##  4  2010 AL    AL - Jefferson County Health Status Over… How is … Fair             107
    ##  5  2010 AL    AL - Jefferson County Health Status Over… How is … Poor              45
    ##  6  2010 AL    AL - Mobile County    Health Status Over… How is … Excelle…          91
    ##  7  2010 AL    AL - Mobile County    Health Status Over… How is … Very go…         177
    ##  8  2010 AL    AL - Mobile County    Health Status Over… How is … Good             224
    ##  9  2010 AL    AL - Mobile County    Health Status Over… How is … Fair             120
    ## 10  2010 AL    AL - Mobile County    Health Status Over… How is … Poor              66
    ## # … with 10,615 more rows, and 15 more variables: data_value <dbl>,
    ## #   confidence_limit_low <dbl>, confidence_limit_high <dbl>,
    ## #   display_order <int>, data_value_unit <chr>, data_value_type <chr>,
    ## #   data_value_footnote_symbol <chr>, data_value_footnote <chr>,
    ## #   data_source <chr>, class_id <chr>, topic_id <chr>, location_id <chr>,
    ## #   question_id <chr>, respid <chr>, geo_location <chr>
…
    ## 
    ## ℹ Use `spec()` to retrieve the full column specification for this data.
    ## ℹ Specify the column types or set `show_col_types = FALSE` to quiet this message.

``` r
  ## encode data with reasonable variable classes

acce_df
```

    ## # A tibble: 50,400 × 6
    ##     week day_id day    minute_of_activity activity day_type
    ##    <dbl>  <dbl> <chr>               <dbl>    <dbl> <chr>   
    ##  1     1      1 Friday                  1     88.4 weekday 
    ##  2     1      1 Friday                  2     82.2 weekday 
    ##  3     1      1 Friday                  3     64.4 weekday 
    ##  4     1      1 Friday                  4     70.0 weekday 
    ##  5     1      1 Friday                  5     75.0 weekday 
    ##  6     1      1 Friday                  6     66.3 weekday 
    ##  7     1      1 Friday                  7     53.8 weekday 
    ##  8     1      1 Friday                  8     47.8 weekday 
    ##  9     1      1 Friday                  9     55.5 weekday 
    ## 10     1      1 Friday                 10     43.0 weekday 
    ## # … with 50,390 more rows
…
